{
	"info": {
		"_postman_id": "e1194442-36be-4d14-8773-fd4a934f6b6a",
		"name": "B170 -s29",
		"schema": "https://schema.getpostman.com/json/collection/v2.1.0/collection.json"
	},
	"item": [
		{
			"name": "s29 - activity",
			"item": [
				{
					"name": "get-home",
					"request": {
						"method": "GET",
						"header": []
					},
					"response": []
				},
				{
					"name": "get-users",
					"request": {
						"method": "GET",
						"header": []
					},
					"response": []
				},
				{
					"name": "del-delete-user",
					"request": {
						"method": "GET",
						"header": []
					},
					"response": []
				}
			]
		},
		{
			"name": "get1 rqst",
			"request": {
				"method": "GET",
				"header": []
			},
			"response": []
		},
		{
			"name": "get2 rqst",
			"request": {
				"method": "GET",
				"header": []
			},
			"response": []
		},
		{
			"name": "post rqst",
			"request": {
				"method": "GET",
				"header": []
			},
			"response": []
		}
	]
}